…
```r
# Extract the first three records of goera_bold
goera_bold <- goera_bold[1:3, ]

# Merging goera_bold and silo_ncbi into one database
bold_ncbi <- refdb_merge(goera_bold, silo_ncbi)
```
Note that you can merge more than two database with `refdb_merge`.

Now, let's take a look at the columns `genus_name`, `species_name` and `nucleotides` of the merged database.


```r
bold_ncbi[, c("source", "genus_name", "species_name", "nucleotides")]
#> # A tibble: 75 x 4
#>    source genus_name species_name  nucleotides                                                                                                                     
#>    <chr>  <chr>      <chr>         <DNA>                                                                                                                           
#>  1 BOLD   Goera      Goera pilosa  AACAATTTATTTTATTTTTGGTATTTGATCAGGAATAGTCGGAACGTCCCTAAGTATAATTATTCGAATTGAATTAGGAACAGCTAATTCTTTAATTAAAAATGATCAAATTTATAATGTTTTAGTA…
#>  2 BOLD   Goera      Goera pilosa  AACAATTTATTTTATTTTTGGTATTTGATCAGGAATAGTCGGAACATCCCTAAGTATAATTATTCGAATTGAATTAGGAACAGCTAATTCTTTAATTAAAAATGATCAAATTTATAATGTTTTAGTA…
#>  3 BOLD   Goera      Goera pilosa  AACAATTTATTTTATTTTTGGTATTTGATCAGGAATAGTCGGAACGTCCCTAAGTATAATTATTCGAATTGAATTAGGAACAGCTAATTCTTTAATTAAAAATGATCAAATTTATAATGTTTTAGTA…
#>  4 NCBI   Silo       Silo pallipes AACTATTTATTTTATTTTTGGAATTTGATCTGGAATAGTAGGAACTTCTCTAAGAATAATTATTCGAACTGAGCTAGGGACTGCTGAATCTTTAATTAAAAATGATCAAATTTATAATGTTTTAGTG…
#>  5 NCBI   Silo       Silo pallipes AACTATTTATTTTATTTTTGGAATTTGATCTGGAATAGTAGGAACTTCTCTAAGAATAATTATTCGAACTGAGCTAGGGACTGCTGAATCTTTAATTAAAAATGATCAAATTTATAATGTTTTAGTG…
#>  6 NCBI   Silo       Silo pallipes AACTATTTATTTTATTTTTGGAATTTGATCTGGAATAGTAGGAACTTCTCTAAGAATAATTATTCGAACTGAGCTAGGGACTGCTGAATCTTTAATTAAAAATGATCAAATTTATAATGTTTTAGTG…
#>  7 NCBI   Silo       Silo pallipes AACTATTTATTTTATTTTTGGAATTTGATCTGGAATAGTAGGAACTTCTCTAAGAATAATTATTCGAACTGAGCTAGGGACTGCTGAATCTTTAATTAAAAATGATCAAATTTATAATGTTTTAGTG…
#>  8 NCBI   Silo       Silo pallipes AACTATTTATTTTATTTTTGGAATTTGATCTGGAATAGTAGGAACTTCTCTAAGAATAATTATTCGAACTGAGCTAGGGACTGCTGAATCTTTAATTAAAAATGATCAAATTTATAATGTTTTAGTG…
#>  9 NCBI   Silo       Silo pallipes AACTATTTATTTTATTTTTGGAATTTGATCTGGAATAGTAGGAACTTCTCTAAGAATAATTATTCGAACTGAGCTAGGGACTGCTGAATCTTTAATTAAAAATGATCAAATTTATAATGTTTTAGTG…
#> 10 NCBI   Silo       Silo pallipes AACTATTTATTTTATTTTTGGAATTTGATCTGGAATAGTAGGAACTTCTCTAAGAATAATTATTCGAACTGAGCTAGGGACTGCTGAATCTTTAATTAAAAATGATCAAATTTATAATGTTTTAGTG…
#> # … with 65 more rows
```

Despite that those columns had different names in the two databases, they were merged successfully because they were associated to the same field. The names used in the merged database are inherited from the database used as first argument in the merge functions (here `goera_bold`).

By default only the columns that are associated to a field in one of the two databases are kept. Of course, if there are no equivalent in the other database, NAs are produced. See the columns `subfamily_name` (subfamily is a taxonomic rank which exist only BOLD):


```r
bold_ncbi[, c("source", "subfamily_name")]
#> # A tibble: 75 x 2
#>    source subfamily_name
#>    <chr>  <chr>         
#>  1 BOLD   Goerinae      
#>  2 BOLD   Goerinae      
#>  3 BOLD   Goerinae      
#>  4 NCBI   <NA>          
#>  5 NCBI   <NA>          
#>  6 NCBI   <NA>          
#>  7 NCBI   <NA>          
#>  8 NCBI   <NA>          
#>  9 NCBI   <NA>          
#> 10 NCBI   <NA>          
#> # … with 65 more rows
```
…
