Introduction to the refdb package • refdb
…
lib_long <- refdb_filter_seq_length(lib, min_len = 500)

nrow(lib)
#> [1] 100
nrow(lib_long)
#> [1] 94

The function has removed 6 records.

Another, more sophisticated filtering function is refdb_filter_seq_primer() which can find sequences which do not contain a motif (typically a primer sequence) and remove them from the reference database

For example, a commonly used forward primer for metazoan is the mlCOIintF (Leray 2013). I we want to keep only the sequences where this primer is found we can use:

refdb_filter_seq_primer(lib, primer_forward = "GGWACWGGWTGAACWGTWTAYCCYCC")
#> # A tibble: 76 x 8
#>    order_name  family_name genus_name species_name marker DNA_seq     lat    lon
#>    <chr>       <chr>       <chr>      <chr>        <chr>  <DNA>     <dbl>  <dbl>
#>  1 Ephemeropt… Oligoneuri… Oligoneur… Oligoneurie… COI-5P GACTTTAT…  42.4   22.5
#>  2 Ephemeropt… Ephemerell… Serratella Serratella … COI-5P --------…  34.2 -118. 
#>  3 Ephemeropt… Baetidae    Fallceon   <NA>         COI-5P --------…  34.2 -119. 
#>  4 Ephemeropt… Heptagenii… Heptagenia Heptagenia … COI-5P AACTTTAT…  58.7  -94.2
#>  5 Ephemeropt… Heptagenii… Epeorus    Epeorus vit… COI-5P AACTCTAT…  46.8  -66.1
#>  6 Ephemeropt… Ephemerell… Ephemerel… Ephemerella… COI-5P AACTTTAT…  46.0  -66.7
#>  7 Ephemeropt… Baetidae    Baetis     Baetis huds… COI-5P CGTTATAT…  67.8 -115. 
#>  8 Ephemeropt… Polymitarc… Ephoron    Ephoron shi… COI-5P GAACTTCT…  34.1  134. 
#>  9 Ephemeropt… Ephemerell… Serratella Serratella … COI-5P AACTTTAT…  34.2 -118. 
#> 10 Ephemeropt… Ephemerell… Ephemerel… Ephemerella… COI-5P ACTTTATA…  39.9  -75.8
#> # … with 66 more rows

You can see that only 76 sequences have passed the filter. By default the tolerance of error is 10%. We can change this value using the max_error_forward argument.

refdb_filter_seq_primer(lib, primer_forward = "GGWACWGGWTGAACWGTWTAYCCYCC", max_error_forward = 0.2)
#> # A tibble: 99 x 8
#>    order_name  family_name genus_name species_name marker DNA_seq    lat     lon
#>    <chr>       <chr>       <chr>      <chr>        <chr>  <DNA>    <dbl>   <dbl>
#>  1 Ephemeropt… Heptagenii… Epeorus    Epeorus fra… COI-5P ATAGTCG…  39.5  -79.2 
#>  2 Ephemeropt… Oligoneuri… Oligoneur… Oligoneurie… COI-5P GACTTTA…  42.4   22.5 
#>  3 Ephemeropt… Ephemerell… Serratella Serratella … COI-5P -------…  34.2 -118.  
#>  4 Ephemeropt… Baetidae    Fallceon   <NA>         COI-5P -------…  34.2 -119.  
#>  5 Ephemeropt… Heptagenii… Heptagenia Heptagenia … COI-5P AACTTTA…  58.7  -94.2 
#>  6 Ephemeropt… Heptagenii… Epeorus    Epeorus vit… COI-5P AACTCTA…  46.8  -66.1 
#>  7 Ephemeropt… Ephemerell… Ephemerel… Ephemerella… COI-5P AACTTTA…  46.0  -66.7 
#>  8 Ephemeropt… Baetidae    Baetis     Baetis huds… COI-5P CGTTATA…  67.8 -115.  
#>  9 Ephemeropt… Polymitarc… Ephoron    Ephoron shi… COI-5P GAACTTC…  34.1  134.  
#> 10 Ephemeropt… Baetidae    Baetis     Baetis rhod… COI-5P AGCTCGG…  52.2   -3.80
#> # … with 89 more rows
…
